{
  "data": [
    {
      "id": 101,
      "first_name": "Kouassi",
      "last_name": "Jean",
      "phone": "+225 07 12 34 56 78",
      "rating": 4.82,
      "zone": "Cocody",
      "owner_name": "Cocody Express",
      "owner_id": 12,
      "vehicle_label": "Toyota Corolla · AB-452-CI",
      "account_status": "approved",
      "availability": "online"
    },
    {
      "id": 103,
      "first_name": "Diabaté",
      "last_name": "Moussa",
      "phone": "+225 01 44 22 11 00",
      "rating": 0,
      "zone": "Plateau",
      "owner_name": "Cocody Express",
      "owner_id": 12,
      "vehicle_label": null,
      "account_status": "pending",
      "availability": "offline"
    },
    {
      "id": 110,
      "first_name": "Traoré",
      "last_name": "Aminata",
      "phone": "+225 05 66 77 88 99",
      "rating": 4.5,
      "zone": "Marcory",
      "owner_name": "Marcory Fleet",
      "owner_id": 15,
      "vehicle_label": "Hyundai i10",
      "account_status": "approved",
      "availability": "on_trip"
    },
    {
      "id": 112,
      "first_name": "Koné",
      "last_name": "Aminata",
      "phone": "+225 05 11 22 33 44",
      "rating": 0,
      "zone": "Cocody",
      "owner_name": "Cocody Express",
      "owner_id": 12,
      "vehicle_label": null,
      "account_status": "pending",
      "availability": "offline"
    }
  ],
  "meta": { "total": 420, "per_page": 25, "current_page": 1, "last_page": 17 }
}
