{
  "data": [
    {
      "id": 101,
      "first_name": "Kouassi",
      "last_name": "Jean",
      "phone": "+225 07 12 34 56 78",
      "rating": 4.82,
      "zone": "Cocody",
      "owner_name": "Cocody Express",
      "vehicle_label": "Toyota Corolla · AB-452-CI",
      "account_status": "approved",
      "availability": "online"
    },
    {
      "id": 102,
      "first_name": "Traoré",
      "last_name": "Aminata",
      "phone": "+225 05 98 76 54 32",
      "rating": 4.91,
      "zone": "Yopougon",
      "owner_name": "Cocody Express",
      "vehicle_label": "Suzuki Dzire · YK-881-CI",
      "account_status": "approved",
      "availability": "online"
    },
    {
      "id": 103,
      "first_name": "Diabaté",
      "last_name": "Moussa",
      "phone": "+225 01 44 22 11 00",
      "rating": 0,
      "zone": "Plateau",
      "owner_name": "Cocody Express",
      "vehicle_label": null,
      "account_status": "pending",
      "availability": "offline"
    },
    {
      "id": 104,
      "first_name": "Bamba",
      "last_name": "Serge",
      "phone": "+225 07 00 11 22 33",
      "rating": 4.65,
      "zone": "Marcory",
      "owner_name": "Marcory Fleet",
      "vehicle_label": "Honda Civic · CI-902-AB",
      "account_status": "approved",
      "availability": "offline"
    }
  ],
  "meta": { "total": 9252, "per_page": 25, "current_page": 1, "last_page": 371 }
}
